Mplus VERSION 8 (Mac)
MUTHEN & MUTHEN
05/22/2020  11:54 AM

INPUT INSTRUCTIONS

  TITLE:	
  	NYC SES Model 2-2, m and f occ;
  	
  DATA:	
  	FILE = "~/Documents/Projects/10-COVID/COVID/NY-Corona/output/nyc_ses_zcta_mplus.csv";
  		
  VARIABLE:	
  	NAMES ARE
  		MODZCTA poverty fem_head single f_mgmt f_profl mgmt profl rental m_mgmt
  		m_profl crowd unmplyd hs_drpt phone nhb pa no_car;
  	MISSING ARE ALL (-9999);
  	IDVARIABLE IS MODZCTA;
  	USEVARIABLES ARE
  		poverty fem_head single f_mgmt f_profl rental m_mgmt
  		m_profl crowd unmplyd hs_drpt phone nhb pa no_car;

         CLASSES = disadv(2) adv(2);

  ANALYSIS:
  		TYPE = MIXTURE;
      	PARAMETERIZATION = LOGLINEAR;
      	STARTS = 250, 10;

  MODEL:
      	%OVERALL%
      	disadv WITH adv;

      	MODEL disadv:
      	%disadv#1%
      	[poverty fem_head single rental crowd unmplyd phone nhb pa no_car]
      	%disadv#2%
      	[poverty fem_head single rental crowd unmplyd phone nhb pa no_car]

      	MODEL adv:
      	%adv#1%
      	[f_mgmt f_profl m_mgmt m_profl hs_drpt]
      	%adv#2%
      	[f_mgmt f_profl m_mgmt m_profl hs_drpt]


  PLOT:
      	TYPE IS plot2 plot3;
      	SERIES IS
         		poverty fem_head single rental crowd unmplyd phone nhb pa no_car
         		f_mgmt f_profl m_mgmt m_profl hs_drpt(*);

  SAVEDATA:
      	FILE IS nyc_ses_mf_2_2_probs.txt;
      	FORMAT IS FREE;
      	SAVE = CPROBABILITIES;

  OUTPUT:
      	tech4;
      	SVALUES;



*** WARNING in MODEL command
  All variables are uncorrelated with all other variables within class.
  Check that this is what is intended.
   1 WARNING(S) FOUND IN THE INPUT INSTRUCTIONS




NYC SES Model 2-2, m and f occ;

SUMMARY OF ANALYSIS

Number of groups                                                 1
Number of observations                                         177

Number of dependent variables                                   15
Number of independent variables                                  0
Number of continuous latent variables                            0
Number of categorical latent variables                           2

Observed dependent variables

  Continuous
   POVERTY     FEM_HEAD    SINGLE      F_MGMT      F_PROFL     RENTAL
   M_MGMT      M_PROFL     CROWD       UNMPLYD     HS_DRPT     PHONE
   NHB         PA          NO_CAR

Categorical latent variables
   DISADV      ADV

Variables with special functions

  ID variable           MODZCTA

Estimator                                                      MLR
Information matrix                                        OBSERVED
Optimization Specifications for the Quasi-Newton Algorithm for
Continuous Outcomes
  Maximum number of iterations                                 100
  Convergence criterion                                  0.100D-05
Optimization Specifications for the EM Algorithm
  Maximum number of iterations                                 500
  Convergence criteria
    Loglikelihood change                                 0.100D-06
    Relative loglikelihood change                        0.100D-06
    Derivative                                           0.100D-05
Optimization Specifications for the M step of the EM Algorithm for
Categorical Latent variables
  Number of M step iterations                                    1
  M step convergence criterion                           0.100D-05
  Basis for M step termination                           ITERATION
Optimization Specifications for the M step of the EM Algorithm for
Censored, Binary or Ordered Categorical (Ordinal), Unordered
Categorical (Nominal) and Count Outcomes
  Number of M step iterations                                    1
  M step convergence criterion                           0.100D-05
  Basis for M step termination                           ITERATION
  Maximum value for logit thresholds                            15
  Minimum value for logit thresholds                           -15
  Minimum expected cell size for chi-square              0.100D-01
Maximum number of iterations for H1                           2000
Convergence criterion for H1                             0.100D-03
Optimization algorithm                                         EMA
Random Starts Specifications
  Number of initial stage random starts                        250
  Number of final stage optimizations                           10
  Number of initial stage iterations                            10
  Initial stage convergence criterion                    0.100D+01
  Random starts scale                                    0.500D+01
  Random seed for generating random starts                       0
Parameterization                                         LOGLINEAR

Input data file(s)
  ~/Documents/Projects/10-COVID/COVID/NY-Corona/output/nyc_ses_zcta_mplus.csv
Input data format  FREE


SUMMARY OF DATA

     Number of missing data patterns             1
     Number of y missing data patterns           1
     Number of u missing data patterns           0


COVARIANCE COVERAGE OF DATA

Minimum covariance coverage value   0.100


     PROPORTION OF DATA PRESENT FOR Y


           Covariance Coverage
              POVERTY       FEM_HEAD      SINGLE        F_MGMT        F_PROFL
              ________      ________      ________      ________      ________
 POVERTY        1.000
 FEM_HEAD       1.000         1.000
 SINGLE         1.000         1.000         1.000
 F_MGMT         1.000         1.000         1.000         1.000
 F_PROFL        1.000         1.000         1.000         1.000         1.000
 RENTAL         1.000         1.000         1.000         1.000         1.000
 M_MGMT         1.000         1.000         1.000         1.000         1.000
 M_PROFL        1.000         1.000         1.000         1.000         1.000
 CROWD          1.000         1.000         1.000         1.000         1.000
 UNMPLYD        1.000         1.000         1.000         1.000         1.000
 HS_DRPT        1.000         1.000         1.000         1.000         1.000
 PHONE          1.000         1.000         1.000         1.000         1.000
 NHB            1.000         1.000         1.000         1.000         1.000
 PA             1.000         1.000         1.000         1.000         1.000
 NO_CAR         1.000         1.000         1.000         1.000         1.000


           Covariance Coverage
              RENTAL        M_MGMT        M_PROFL       CROWD         UNMPLYD
              ________      ________      ________      ________      ________
 RENTAL         1.000
 M_MGMT         1.000         1.000
 M_PROFL        1.000         1.000         1.000
 CROWD          1.000         1.000         1.000         1.000
 UNMPLYD        1.000         1.000         1.000         1.000         1.000
 HS_DRPT        1.000         1.000         1.000         1.000         1.000
 PHONE          1.000         1.000         1.000         1.000         1.000
 NHB            1.000         1.000         1.000         1.000         1.000
 PA             1.000         1.000         1.000         1.000         1.000
 NO_CAR         1.000         1.000         1.000         1.000         1.000


           Covariance Coverage
              HS_DRPT       PHONE         NHB           PA            NO_CAR
              ________      ________      ________      ________      ________
 HS_DRPT        1.000
 PHONE          1.000         1.000
 NHB            1.000         1.000         1.000
 PA             1.000         1.000         1.000         1.000
 NO_CAR         1.000         1.000         1.000         1.000         1.000



UNIVARIATE SAMPLE STATISTICS


     UNIVARIATE HIGHER-ORDER MOMENT DESCRIPTIVE STATISTICS

         Variable/         Mean/     Skewness/   Minimum/ % with                Percentiles
        Sample Size      Variance    Kurtosis    Maximum  Min/Max      20%/60%    40%/80%    Median

     POVERTY               0.457      -0.942       0.000    4.52%       0.336      0.433      0.487
             177.000       0.025       1.047       0.732    0.56%       0.509      0.597
     FEM_HEAD              0.501       0.126       0.131    0.56%       0.391      0.438      0.472
             177.000       0.020      -0.705       0.805    0.56%       0.508      0.647
     SINGLE                0.580       0.074       0.232    0.56%       0.459      0.524      0.550
             177.000       0.020      -0.851       0.864    0.56%       0.603      0.726
     F_MGMT                0.022       1.309       0.000   51.98%       0.000      0.000      0.000
             177.000       0.001       1.682       0.130    0.56%       0.025      0.046
     F_PROFL               0.312       0.740       0.139    0.56%       0.228      0.264      0.286
             177.000       0.011      -0.314       0.622    0.56%       0.301      0.418
     RENTAL                0.767      -0.932       0.123    0.56%       0.622      0.760      0.803
             177.000       0.026       0.649       0.983    0.56%       0.834      0.915
     M_MGMT                0.021       1.832       0.000   51.41%       0.000      0.000      0.000
             177.000       0.001       4.339       0.165    0.56%       0.024      0.041
     M_PROFL               0.306       0.590       0.108    0.56%       0.206      0.256      0.280
             177.000       0.012      -0.725       0.568    0.56%       0.298      0.432
     CROWD                 0.276       0.452       0.123    0.56%       0.199      0.251      0.270
             177.000       0.006      -0.069       0.534    0.56%       0.290      0.338
     UNMPLYD               0.212       0.245       0.122    0.56%       0.175      0.198      0.207
             177.000       0.002      -0.479       0.318    0.56%       0.220      0.251
     HS_DRPT               0.392      -0.282       0.068    0.56%       0.285      0.367      0.396
             177.000       0.016      -0.389       0.670    0.56%       0.424      0.498
     PHONE                 0.988      -2.945       0.936    0.56%       0.984      0.988      0.989
             177.000       0.000      14.553       0.998    0.56%       0.990      0.994
     NHB                   0.371       0.740       0.054    0.56%       0.149      0.236      0.279
             177.000       0.059      -0.621       0.938    0.56%       0.374      0.593
     PA                    0.185       0.090       0.000    0.56%       0.122      0.172      0.184
             177.000       0.005      -0.251       0.349    0.56%       0.198      0.240
     NO_CAR                0.686      -0.619       0.256    0.56%       0.486      0.661      0.737
             177.000       0.035      -0.837       0.922    0.56%       0.795      0.859

RANDOM STARTS RESULTS RANKED FROM THE BEST TO THE WORST LOGLIKELIHOOD VALUES

Final stage loglikelihood values at local maxima, seeds, and initial stage start numbers:

            3461.149  370466           41
            3461.149  unperturbed      0
            3461.149  150531           154
            2878.862  830392           35
            2878.862  846194           93
            2878.862  314084           81
            2878.862  455617           242
            2878.862  153942           31
            2878.862  405079           68
            2878.862  456213           160



THE BEST LOGLIKELIHOOD VALUE HAS BEEN REPLICATED.  RERUN WITH AT LEAST TWICE THE
RANDOM STARTS TO CHECK THAT THE BEST LOGLIKELIHOOD IS STILL OBTAINED AND REPLICATED.

     THE STANDARD ERRORS OF THE MODEL PARAMETER ESTIMATES MAY NOT BE
     TRUSTWORTHY FOR SOME PARAMETERS DUE TO A NON-POSITIVE DEFINITE
     FIRST-ORDER DERIVATIVE PRODUCT MATRIX.  THIS MAY BE DUE TO THE STARTING
     VALUES BUT MAY ALSO BE AN INDICATION OF MODEL NONIDENTIFICATION.  THE
     CONDITION NUMBER IS       0.254D-10.  PROBLEM INVOLVING THE FOLLOWING PARAMETER:
     Parameter 46, [ DISADV#1 ]


THE MODEL ESTIMATION TERMINATED NORMALLY



MODEL FIT INFORMATION

Number of Free Parameters                       48

Loglikelihood

          H0 Value                        3461.149
          H0 Scaling Correction Factor      1.3196
            for MLR

Information Criteria

          Akaike (AIC)                   -6826.299
          Bayesian (BIC)                 -6673.844
          Sample-Size Adjusted BIC       -6825.851
            (n* = (n + 2) / 24)



MODEL RESULTS USE THE LATENT CLASS VARIABLE ORDER

   DISADV  ADV

  Latent Class Variable Patterns

     DISADV       ADV
      Class     Class

         1         1
         1         2
         2         1
         2         2


FINAL CLASS COUNTS AND PROPORTIONS FOR THE LATENT CLASS PATTERNS
BASED ON THE ESTIMATED MODEL

  Latent Class
    Pattern

    1  1         41.54323          0.23471
    1  2         66.37137          0.37498
    2  1          2.49921          0.01412
    2  2         66.58619          0.37619


FINAL CLASS COUNTS AND PROPORTIONS FOR EACH LATENT CLASS VARIABLE
BASED ON THE ESTIMATED MODEL

  Latent Class
    Variable    Class

    DISADV         1       107.91460          0.60969
                   2        69.08540          0.39031
    ADV            1        44.04244          0.24883
                   2       132.95757          0.75117


FINAL CLASS COUNTS AND PROPORTIONS FOR THE LATENT CLASS PATTERNS
BASED ON ESTIMATED POSTERIOR PROBABILITIES

  Latent Class
    Pattern

    1  1         41.54323          0.23471
    1  2         66.37137          0.37498
    2  1          2.49921          0.01412
    2  2         66.58619          0.37619


FINAL CLASS COUNTS AND PROPORTIONS FOR EACH LATENT CLASS VARIABLE
BASED ON ESTIMATED POSTERIOR PROBABILITIES

  Latent Class
    Variable    Class

    DISADV         1       107.91460          0.60969
                   2        69.08540          0.39031
    ADV            1        44.04244          0.24883
                   2       132.95757          0.75117


FINAL CLASS COUNTS AND PROPORTIONS FOR THE LATENT CLASS PATTERNS
BASED ON THEIR MOST LIKELY LATENT CLASS PATTERN

Class Counts and Proportions

  Latent Class
    Pattern

    1  1               40          0.22599
    1  2               68          0.38418
    2  1                3          0.01695
    2  2               66          0.37288


FINAL CLASS COUNTS AND PROPORTIONS FOR EACH LATENT CLASS VARIABLE
BASED ON THEIR MOST LIKELY LATENT CLASS PATTERN

  Latent Class
    Variable    Class

    DISADV         1             108          0.61017
                   2              69          0.38983
    ADV            1              43          0.24294
                   2             134          0.75706


CLASSIFICATION QUALITY

     Entropy                         0.951


Average Latent Class Probabilities for Most Likely Latent Class Pattern (Row)
by Latent Class Pattern (Column)

  Latent Class Variable Patterns

  Latent Class     DISADV       ADV
   Pattern No.      Class     Class

         1             1         1
         2             1         2
         3             2         1
         4             2         2

           1        2        3        4

    1   0.982    0.014    0.001    0.003
    2   0.026    0.958    0.000    0.016
    3   0.171    0.000    0.731    0.098
    4   0.000    0.010    0.004    0.986


MODEL RESULTS

                                                    Two-Tailed
                    Estimate       S.E.  Est./S.E.    P-Value

Latent Class Pattern 1 1

 Means
    POVERTY            0.402      0.016     24.687      0.000
    FEM_HEAD           0.404      0.010     41.407      0.000
    SINGLE             0.484      0.010     46.691      0.000
    F_MGMT             0.038      0.006      6.607      0.000
    F_PROFL            0.466      0.013     34.851      0.000
    RENTAL             0.725      0.016     46.313      0.000
    M_MGMT             0.042      0.007      5.904      0.000
    M_PROFL            0.469      0.013     36.855      0.000
    CROWD              0.257      0.008     33.174      0.000
    UNMPLYD            0.189      0.003     56.617      0.000
    HS_DRPT            0.250      0.022     11.237      0.000
    PHONE              0.989      0.001   1509.325      0.000
    NHB                0.217      0.017     13.021      0.000
    PA                 0.147      0.006     25.354      0.000
    NO_CAR             0.651      0.020     32.330      0.000

 Variances
    POVERTY            0.020      0.003      7.391      0.000
    FEM_HEAD           0.005      0.001      7.196      0.000
    SINGLE             0.006      0.001      8.590      0.000
    F_MGMT             0.001      0.000      7.839      0.000
    F_PROFL            0.003      0.000      8.520      0.000
    RENTAL             0.023      0.003      7.385      0.000
    M_MGMT             0.001      0.000      6.338      0.000
    M_PROFL            0.004      0.000      8.743      0.000
    CROWD              0.006      0.001      8.896      0.000
    UNMPLYD            0.001      0.000      9.251      0.000
    HS_DRPT            0.010      0.001      9.842      0.000
    PHONE              0.000      0.000      3.402      0.001
    NHB                0.022      0.003      7.017      0.000
    PA                 0.002      0.000     11.142      0.000
    NO_CAR             0.033      0.003     11.701      0.000

Latent Class Pattern 1 2

 Means
    POVERTY            0.402      0.016     24.687      0.000
    FEM_HEAD           0.404      0.010     41.407      0.000
    SINGLE             0.484      0.010     46.691      0.000
    F_MGMT             0.017      0.002      8.091      0.000
    F_PROFL            0.261      0.007     39.196      0.000
    RENTAL             0.725      0.016     46.313      0.000
    M_MGMT             0.015      0.002      8.419      0.000
    M_PROFL            0.252      0.007     34.937      0.000
    CROWD              0.257      0.008     33.174      0.000
    UNMPLYD            0.189      0.003     56.617      0.000
    HS_DRPT            0.439      0.009     48.383      0.000
    PHONE              0.989      0.001   1509.325      0.000
    NHB                0.217      0.017     13.021      0.000
    PA                 0.147      0.006     25.354      0.000
    NO_CAR             0.651      0.020     32.330      0.000

 Variances
    POVERTY            0.020      0.003      7.391      0.000
    FEM_HEAD           0.005      0.001      7.196      0.000
    SINGLE             0.006      0.001      8.590      0.000
    F_MGMT             0.001      0.000      7.839      0.000
    F_PROFL            0.003      0.000      8.520      0.000
    RENTAL             0.023      0.003      7.385      0.000
    M_MGMT             0.001      0.000      6.338      0.000
    M_PROFL            0.004      0.000      8.743      0.000
    CROWD              0.006      0.001      8.896      0.000
    UNMPLYD            0.001      0.000      9.251      0.000
    HS_DRPT            0.010      0.001      9.842      0.000
    PHONE              0.000      0.000      3.402      0.001
    NHB                0.022      0.003      7.017      0.000
    PA                 0.002      0.000     11.142      0.000
    NO_CAR             0.033      0.003     11.701      0.000

Latent Class Pattern 2 1

 Means
    POVERTY            0.542      0.016     34.633      0.000
    FEM_HEAD           0.651      0.014     48.089      0.000
    SINGLE             0.731      0.013     56.644      0.000
    F_MGMT             0.038      0.006      6.607      0.000
    F_PROFL            0.466      0.013     34.851      0.000
    RENTAL             0.834      0.023     36.481      0.000
    M_MGMT             0.042      0.007      5.904      0.000
    M_PROFL            0.469      0.013     36.855      0.000
    CROWD              0.305      0.009     32.430      0.000
    UNMPLYD            0.247      0.004     56.277      0.000
    HS_DRPT            0.250      0.022     11.237      0.000
    PHONE              0.986      0.001    739.176      0.000
    NHB                0.612      0.025     24.985      0.000
    PA                 0.244      0.007     34.028      0.000
    NO_CAR             0.740      0.023     32.565      0.000

 Variances
    POVERTY            0.020      0.003      7.391      0.000
    FEM_HEAD           0.005      0.001      7.196      0.000
    SINGLE             0.006      0.001      8.590      0.000
    F_MGMT             0.001      0.000      7.839      0.000
    F_PROFL            0.003      0.000      8.520      0.000
    RENTAL             0.023      0.003      7.385      0.000
    M_MGMT             0.001      0.000      6.338      0.000
    M_PROFL            0.004      0.000      8.743      0.000
    CROWD              0.006      0.001      8.896      0.000
    UNMPLYD            0.001      0.000      9.251      0.000
    HS_DRPT            0.010      0.001      9.842      0.000
    PHONE              0.000      0.000      3.402      0.001
    NHB                0.022      0.003      7.017      0.000
    PA                 0.002      0.000     11.142      0.000
    NO_CAR             0.033      0.003     11.701      0.000

Latent Class Pattern 2 2

 Means
    POVERTY            0.542      0.016     34.633      0.000
    FEM_HEAD           0.651      0.014     48.089      0.000
    SINGLE             0.731      0.013     56.644      0.000
    F_MGMT             0.017      0.002      8.091      0.000
    F_PROFL            0.261      0.007     39.196      0.000
    RENTAL             0.834      0.023     36.481      0.000
    M_MGMT             0.015      0.002      8.419      0.000
    M_PROFL            0.252      0.007     34.937      0.000
    CROWD              0.305      0.009     32.430      0.000
    UNMPLYD            0.247      0.004     56.277      0.000
    HS_DRPT            0.439      0.009     48.383      0.000
    PHONE              0.986      0.001    739.176      0.000
    NHB                0.612      0.025     24.985      0.000
    PA                 0.244      0.007     34.028      0.000
    NO_CAR             0.740      0.023     32.565      0.000

 Variances
    POVERTY            0.020      0.003      7.391      0.000
    FEM_HEAD           0.005      0.001      7.196      0.000
    SINGLE             0.006      0.001      8.590      0.000
    F_MGMT             0.001      0.000      7.839      0.000
    F_PROFL            0.003      0.000      8.520      0.000
    RENTAL             0.023      0.003      7.385      0.000
    M_MGMT             0.001      0.000      6.338      0.000
    M_PROFL            0.004      0.000      8.743      0.000
    CROWD              0.006      0.001      8.896      0.000
    UNMPLYD            0.001      0.000      9.251      0.000
    HS_DRPT            0.010      0.001      9.842      0.000
    PHONE              0.000      0.000      3.402      0.001
    NHB                0.022      0.003      7.017      0.000
    PA                 0.002      0.000     11.142      0.000
    NO_CAR             0.033      0.003     11.701      0.000

Categorical Latent Variables

 DISADV#1 WITH
    ADV#1              2.814      1.024      2.748      0.006

 Means
    DISADV#1          -0.003      0.207     -0.016      0.988
    ADV#1             -3.283      1.047     -3.134      0.002


QUALITY OF NUMERICAL RESULTS

     Condition Number for the Information Matrix              0.254E-10
       (ratio of smallest to largest eigenvalue)


MODEL COMMAND WITH FINAL ESTIMATES USED AS STARTING VALUES

     %OVERALL%

     disadv#1 WITH adv#1*2.81399;

     [ disadv#1*-0.00323 ];
     [ adv#1*-3.28252 ];

     %DISADV#1.ADV#1%

     poverty*0.02008 (16);
     fem_head*0.00549 (17);
     single*0.00572 (18);
     f_mgmt*0.00071 (19);
     f_profl*0.00305 (20);
     rental*0.02296 (21);
     m_mgmt*0.00071 (22);
     m_profl*0.00354 (23);
     crowd*0.00579 (24);
     unmplyd*0.00083 (25);
     hs_drpt*0.00975 (26);
     phone*0.00006 (27);
     nhb*0.02207 (28);
     pa*0.00238 (29);
     no_car*0.03273 (30);

     %DISADV#1.ADV#2%

     poverty*0.02008 (16);
     fem_head*0.00549 (17);
     single*0.00572 (18);
     f_mgmt*0.00071 (19);
     f_profl*0.00305 (20);
     rental*0.02296 (21);
     m_mgmt*0.00071 (22);
     m_profl*0.00354 (23);
     crowd*0.00579 (24);
     unmplyd*0.00083 (25);
     hs_drpt*0.00975 (26);
     phone*0.00006 (27);
     nhb*0.02207 (28);
     pa*0.00238 (29);
     no_car*0.03273 (30);

     %DISADV#2.ADV#1%

     poverty*0.02008 (16);
     fem_head*0.00549 (17);
     single*0.00572 (18);
     f_mgmt*0.00071 (19);
     f_profl*0.00305 (20);
     rental*0.02296 (21);
     m_mgmt*0.00071 (22);
     m_profl*0.00354 (23);
     crowd*0.00579 (24);
     unmplyd*0.00083 (25);
     hs_drpt*0.00975 (26);
     phone*0.00006 (27);
     nhb*0.02207 (28);
     pa*0.00238 (29);
     no_car*0.03273 (30);

     %DISADV#2.ADV#2%

     poverty*0.02008 (16);
     fem_head*0.00549 (17);
     single*0.00572 (18);
     f_mgmt*0.00071 (19);
     f_profl*0.00305 (20);
     rental*0.02296 (21);
     m_mgmt*0.00071 (22);
     m_profl*0.00354 (23);
     crowd*0.00579 (24);
     unmplyd*0.00083 (25);
     hs_drpt*0.00975 (26);
     phone*0.00006 (27);
     nhb*0.02207 (28);
     pa*0.00238 (29);
     no_car*0.03273 (30);

  MODEL DISADV:
     %DISADV#1%

     [ poverty*0.40209 ] (1);
     [ fem_head*0.40447 ] (2);
     [ single*0.48401 ] (3);
     [ rental*0.72465 ] (6);
     [ crowd*0.25684 ] (9);
     [ unmplyd*0.18918 ] (10);
     [ phone*0.98912 ] (12);
     [ nhb*0.21652 ] (13);
     [ pa*0.14743 ] (14);
     [ no_car*0.65094 ] (15);

     %DISADV#2%

     [ poverty*0.54188 ] (36);
     [ fem_head*0.65101 ] (37);
     [ single*0.73113 ] (38);
     [ rental*0.83377 ] (39);
     [ crowd*0.30522 ] (40);
     [ unmplyd*0.24712 ] (41);
     [ phone*0.98649 ] (42);
     [ nhb*0.61249 ] (43);
     [ pa*0.24399 ] (44);
     [ no_car*0.74016 ] (45);

  MODEL ADV:
     %ADV#1%

     [ f_mgmt*0.03775 ] (4);
     [ f_profl*0.46559 ] (5);
     [ m_mgmt*0.04232 ] (7);
     [ m_profl*0.46883 ] (8);
     [ hs_drpt*0.25040 ] (11);

     %ADV#2%

     [ f_mgmt*0.01704 ] (31);
     [ f_profl*0.26076 ] (32);
     [ m_mgmt*0.01457 ] (33);
     [ m_profl*0.25166 ] (34);
     [ hs_drpt*0.43938 ] (35);



TECHNICAL 1 OUTPUT


     PARAMETER SPECIFICATION FOR LATENT CLASS PATTERN 1 1


           NU
              POVERTY       FEM_HEAD      SINGLE        F_MGMT        F_PROFL
              ________      ________      ________      ________      ________
                    1             2             3             4             5


           NU
              RENTAL        M_MGMT        M_PROFL       CROWD         UNMPLYD
              ________      ________      ________      ________      ________
                    6             7             8             9            10


           NU
              HS_DRPT       PHONE         NHB           PA            NO_CAR
              ________      ________      ________      ________      ________
                   11            12            13            14            15


           THETA
              POVERTY       FEM_HEAD      SINGLE        F_MGMT        F_PROFL
              ________      ________      ________      ________      ________
 POVERTY           16
 FEM_HEAD           0            17
 SINGLE             0             0            18
 F_MGMT             0             0             0            19
 F_PROFL            0             0             0             0            20
 RENTAL             0             0             0             0             0
 M_MGMT             0             0             0             0             0
 M_PROFL            0             0             0             0             0
 CROWD              0             0             0             0             0
 UNMPLYD            0             0             0             0             0
 HS_DRPT            0             0             0             0             0
 PHONE              0             0             0             0             0
 NHB                0             0             0             0             0
 PA                 0             0             0             0             0
 NO_CAR             0             0             0             0             0


           THETA
              RENTAL        M_MGMT        M_PROFL       CROWD         UNMPLYD
              ________      ________      ________      ________      ________
 RENTAL            21
 M_MGMT             0            22
 M_PROFL            0             0            23
 CROWD              0             0             0            24
 UNMPLYD            0             0             0             0            25
 HS_DRPT            0             0             0             0             0
 PHONE              0             0             0             0             0
 NHB                0             0             0             0             0
 PA                 0             0             0             0             0
 NO_CAR             0             0             0             0             0


           THETA
              HS_DRPT       PHONE         NHB           PA            NO_CAR
              ________      ________      ________      ________      ________
 HS_DRPT           26
 PHONE              0            27
 NHB                0             0            28
 PA                 0             0             0            29
 NO_CAR             0             0             0             0            30


     PARAMETER SPECIFICATION FOR LATENT CLASS PATTERN 1 2


           NU
              POVERTY       FEM_HEAD      SINGLE        F_MGMT        F_PROFL
              ________      ________      ________      ________      ________
                    1             2             3            31            32


           NU
              RENTAL        M_MGMT        M_PROFL       CROWD         UNMPLYD
              ________      ________      ________      ________      ________
                    6            33            34             9            10


           NU
              HS_DRPT       PHONE         NHB           PA            NO_CAR
              ________      ________      ________      ________      ________
                   35            12            13            14            15


           THETA
              POVERTY       FEM_HEAD      SINGLE        F_MGMT        F_PROFL
              ________      ________      ________      ________      ________
 POVERTY           16
 FEM_HEAD           0            17
 SINGLE             0             0            18
 F_MGMT             0             0             0            19
 F_PROFL            0             0             0             0            20
 RENTAL             0             0             0             0             0
 M_MGMT             0             0             0             0             0
 M_PROFL            0             0             0             0             0
 CROWD              0             0             0             0             0
 UNMPLYD            0             0             0             0             0
 HS_DRPT            0             0             0             0             0
 PHONE              0             0             0             0             0
 NHB                0             0             0             0             0
 PA                 0             0             0             0             0
 NO_CAR             0             0             0             0             0


           THETA
              RENTAL        M_MGMT        M_PROFL       CROWD         UNMPLYD
              ________      ________      ________      ________      ________
 RENTAL            21
 M_MGMT             0            22
 M_PROFL            0             0            23
 CROWD              0             0             0            24
 UNMPLYD            0             0             0             0            25
 HS_DRPT            0             0             0             0             0
 PHONE              0             0             0             0             0
 NHB                0             0             0             0             0
 PA                 0             0             0             0             0
 NO_CAR             0             0             0             0             0


           THETA
              HS_DRPT       PHONE         NHB           PA            NO_CAR
              ________      ________      ________      ________      ________
 HS_DRPT           26
 PHONE              0            27
 NHB                0             0            28
 PA                 0             0             0            29
 NO_CAR             0             0             0             0            30


     PARAMETER SPECIFICATION FOR LATENT CLASS PATTERN 2 1


           NU
              POVERTY       FEM_HEAD      SINGLE        F_MGMT        F_PROFL
              ________      ________      ________      ________      ________
                   36            37            38             4             5


           NU
              RENTAL        M_MGMT        M_PROFL       CROWD         UNMPLYD
              ________      ________      ________      ________      ________
                   39             7             8            40            41


           NU
              HS_DRPT       PHONE         NHB           PA            NO_CAR
              ________      ________      ________      ________      ________
                   11            42            43            44            45


           THETA
              POVERTY       FEM_HEAD      SINGLE        F_MGMT        F_PROFL
              ________      ________      ________      ________      ________
 POVERTY           16
 FEM_HEAD           0            17
 SINGLE             0             0            18
 F_MGMT             0             0             0            19
 F_PROFL            0             0             0             0            20
 RENTAL             0             0             0             0             0
 M_MGMT             0             0             0             0             0
 M_PROFL            0             0             0             0             0
 CROWD              0             0             0             0             0
 UNMPLYD            0             0             0             0             0
 HS_DRPT            0             0             0             0             0
 PHONE              0             0             0             0             0
 NHB                0             0             0             0             0
 PA                 0             0             0             0             0
 NO_CAR             0             0             0             0             0


           THETA
              RENTAL        M_MGMT        M_PROFL       CROWD         UNMPLYD
              ________      ________      ________      ________      ________
 RENTAL            21
 M_MGMT             0            22
 M_PROFL            0             0            23
 CROWD              0             0             0            24
 UNMPLYD            0             0             0             0            25
 HS_DRPT            0             0             0             0             0
 PHONE              0             0             0             0             0
 NHB                0             0             0             0             0
 PA                 0             0             0             0             0
 NO_CAR             0             0             0             0             0


           THETA
              HS_DRPT       PHONE         NHB           PA            NO_CAR
              ________      ________      ________      ________      ________
 HS_DRPT           26
 PHONE              0            27
 NHB                0             0            28
 PA                 0             0             0            29
 NO_CAR             0             0             0             0            30


     PARAMETER SPECIFICATION FOR LATENT CLASS PATTERN 2 2


           NU
              POVERTY       FEM_HEAD      SINGLE        F_MGMT        F_PROFL
              ________      ________      ________      ________      ________
                   36            37            38            31            32


           NU
              RENTAL        M_MGMT        M_PROFL       CROWD         UNMPLYD
              ________      ________      ________      ________      ________
                   39            33            34            40            41


           NU
              HS_DRPT       PHONE         NHB           PA            NO_CAR
              ________      ________      ________      ________      ________
                   35            42            43            44            45


           THETA
              POVERTY       FEM_HEAD      SINGLE        F_MGMT        F_PROFL
              ________      ________      ________      ________      ________
 POVERTY           16
 FEM_HEAD           0            17
 SINGLE             0             0            18
 F_MGMT             0             0             0            19
 F_PROFL            0             0             0             0            20
 RENTAL             0             0             0             0             0
 M_MGMT             0             0             0             0             0
 M_PROFL            0             0             0             0             0
 CROWD              0             0             0             0             0
 UNMPLYD            0             0             0             0             0
 HS_DRPT            0             0             0             0             0
 PHONE              0             0             0             0             0
 NHB                0             0             0             0             0
 PA                 0             0             0             0             0
 NO_CAR             0             0             0             0             0


           THETA
              RENTAL        M_MGMT        M_PROFL       CROWD         UNMPLYD
              ________      ________      ________      ________      ________
 RENTAL            21
 M_MGMT             0            22
 M_PROFL            0             0            23
 CROWD              0             0             0            24
 UNMPLYD            0             0             0             0            25
 HS_DRPT            0             0             0             0             0
 PHONE              0             0             0             0             0
 NHB                0             0             0             0             0
 PA                 0             0             0             0             0
 NO_CAR             0             0             0             0             0


           THETA
              HS_DRPT       PHONE         NHB           PA            NO_CAR
              ________      ________      ________      ________      ________
 HS_DRPT           26
 PHONE              0            27
 NHB                0             0            28
 PA                 0             0             0            29
 NO_CAR             0             0             0             0            30


     PARAMETER SPECIFICATION FOR LATENT CLASS REGRESSION MODEL PART


           ALPHA(C)
              DISADV#1      DISADV#2      ADV#1         ADV#2
              ________      ________      ________      ________
                   46             0            47             0


           PSI(C)
              DISADV#1      DISADV#2
              ________      ________
 ADV#1             48             0
 ADV#2              0             0


     STARTING VALUES FOR LATENT CLASS PATTERN 1 1


           NU
              POVERTY       FEM_HEAD      SINGLE        F_MGMT        F_PROFL
              ________      ________      ________      ________      ________
                0.378         0.430         0.509         0.008         0.260


           NU
              RENTAL        M_MGMT        M_PROFL       CROWD         UNMPLYD
              ________      ________      ________      ________      ________
                0.687         0.007         0.250         0.236         0.192


           NU
              HS_DRPT       PHONE         NHB           PA            NO_CAR
              ________      ________      ________      ________      ________
                0.328         0.984         0.249         0.151         0.593


           THETA
              POVERTY       FEM_HEAD      SINGLE        F_MGMT        F_PROFL
              ________      ________      ________      ________      ________
 POVERTY        0.012
 FEM_HEAD       0.000         0.010
 SINGLE         0.000         0.000         0.010
 F_MGMT         0.000         0.000         0.000         0.000
 F_PROFL        0.000         0.000         0.000         0.000         0.005
 RENTAL         0.000         0.000         0.000         0.000         0.000
 M_MGMT         0.000         0.000         0.000         0.000         0.000
 M_PROFL        0.000         0.000         0.000         0.000         0.000
 CROWD          0.000         0.000         0.000         0.000         0.000
 UNMPLYD        0.000         0.000         0.000         0.000         0.000
 HS_DRPT        0.000         0.000         0.000         0.000         0.000
 PHONE          0.000         0.000         0.000         0.000         0.000
 NHB            0.000         0.000         0.000         0.000         0.000
 PA             0.000         0.000         0.000         0.000         0.000
 NO_CAR         0.000         0.000         0.000         0.000         0.000


           THETA
              RENTAL        M_MGMT        M_PROFL       CROWD         UNMPLYD
              ________      ________      ________      ________      ________
 RENTAL         0.013
 M_MGMT         0.000         0.000
 M_PROFL        0.000         0.000         0.006
 CROWD          0.000         0.000         0.000         0.003
 UNMPLYD        0.000         0.000         0.000         0.000         0.001
 HS_DRPT        0.000         0.000         0.000         0.000         0.000
 PHONE          0.000         0.000         0.000         0.000         0.000
 NHB            0.000         0.000         0.000         0.000         0.000
 PA             0.000         0.000         0.000         0.000         0.000
 NO_CAR         0.000         0.000         0.000         0.000         0.000


           THETA
              HS_DRPT       PHONE         NHB           PA            NO_CAR
              ________      ________      ________      ________      ________
 HS_DRPT        0.008
 PHONE          0.000         0.000
 NHB            0.000         0.000         0.030
 PA             0.000         0.000         0.000         0.002
 NO_CAR         0.000         0.000         0.000         0.000         0.017


     STARTING VALUES FOR LATENT CLASS PATTERN 1 2


           NU
              POVERTY       FEM_HEAD      SINGLE        F_MGMT        F_PROFL
              ________      ________      ________      ________      ________
                0.378         0.430         0.509         0.036         0.364


           NU
              RENTAL        M_MGMT        M_PROFL       CROWD         UNMPLYD
              ________      ________      ________      ________      ________
                0.687         0.036         0.361         0.236         0.192


           NU
              HS_DRPT       PHONE         NHB           PA            NO_CAR
              ________      ________      ________      ________      ________
                0.456         0.984         0.249         0.151         0.593


           THETA
              POVERTY       FEM_HEAD      SINGLE        F_MGMT        F_PROFL
              ________      ________      ________      ________      ________
 POVERTY        0.012
 FEM_HEAD       0.000         0.010
 SINGLE         0.000         0.000         0.010
 F_MGMT         0.000         0.000         0.000         0.000
 F_PROFL        0.000         0.000         0.000         0.000         0.005
 RENTAL         0.000         0.000         0.000         0.000         0.000
 M_MGMT         0.000         0.000         0.000         0.000         0.000
 M_PROFL        0.000         0.000         0.000         0.000         0.000
 CROWD          0.000         0.000         0.000         0.000         0.000
 UNMPLYD        0.000         0.000         0.000         0.000         0.000
 HS_DRPT        0.000         0.000         0.000         0.000         0.000
 PHONE          0.000         0.000         0.000         0.000         0.000
 NHB            0.000         0.000         0.000         0.000         0.000
 PA             0.000         0.000         0.000         0.000         0.000
 NO_CAR         0.000         0.000         0.000         0.000         0.000


           THETA
              RENTAL        M_MGMT        M_PROFL       CROWD         UNMPLYD
              ________      ________      ________      ________      ________
 RENTAL         0.013
 M_MGMT         0.000         0.000
 M_PROFL        0.000         0.000         0.006
 CROWD          0.000         0.000         0.000         0.003
 UNMPLYD        0.000         0.000         0.000         0.000         0.001
 HS_DRPT        0.000         0.000         0.000         0.000         0.000
 PHONE          0.000         0.000         0.000         0.000         0.000
 NHB            0.000         0.000         0.000         0.000         0.000
 PA             0.000         0.000         0.000         0.000         0.000
 NO_CAR         0.000         0.000         0.000         0.000         0.000


           THETA
              HS_DRPT       PHONE         NHB           PA            NO_CAR
              ________      ________      ________      ________      ________
 HS_DRPT        0.008
 PHONE          0.000         0.000
 NHB            0.000         0.000         0.030
 PA             0.000         0.000         0.000         0.002
 NO_CAR         0.000         0.000         0.000         0.000         0.017


     STARTING VALUES FOR LATENT CLASS PATTERN 2 1


           NU
              POVERTY       FEM_HEAD      SINGLE        F_MGMT        F_PROFL
              ________      ________      ________      ________      ________
                0.535         0.571         0.652         0.008         0.260


           NU
              RENTAL        M_MGMT        M_PROFL       CROWD         UNMPLYD
              ________      ________      ________      ________      ________
                0.848         0.007         0.250         0.316         0.232


           NU
              HS_DRPT       PHONE         NHB           PA            NO_CAR
              ________      ________      ________      ________      ________
                0.328         0.992         0.493         0.219         0.779


           THETA
              POVERTY       FEM_HEAD      SINGLE        F_MGMT        F_PROFL
              ________      ________      ________      ________      ________
 POVERTY        0.012
 FEM_HEAD       0.000         0.010
 SINGLE         0.000         0.000         0.010
 F_MGMT         0.000         0.000         0.000         0.000
 F_PROFL        0.000         0.000         0.000         0.000         0.005
 RENTAL         0.000         0.000         0.000         0.000         0.000
 M_MGMT         0.000         0.000         0.000         0.000         0.000
 M_PROFL        0.000         0.000         0.000         0.000         0.000
 CROWD          0.000         0.000         0.000         0.000         0.000
 UNMPLYD        0.000         0.000         0.000         0.000         0.000
 HS_DRPT        0.000         0.000         0.000         0.000         0.000
 PHONE          0.000         0.000         0.000         0.000         0.000
 NHB            0.000         0.000         0.000         0.000         0.000
 PA             0.000         0.000         0.000         0.000         0.000
 NO_CAR         0.000         0.000         0.000         0.000         0.000


           THETA
              RENTAL        M_MGMT        M_PROFL       CROWD         UNMPLYD
              ________      ________      ________      ________      ________
 RENTAL         0.013
 M_MGMT         0.000         0.000
 M_PROFL        0.000         0.000         0.006
 CROWD          0.000         0.000         0.000         0.003
 UNMPLYD        0.000         0.000         0.000         0.000         0.001
 HS_DRPT        0.000         0.000         0.000         0.000         0.000
 PHONE          0.000         0.000         0.000         0.000         0.000
 NHB            0.000         0.000         0.000         0.000         0.000
 PA             0.000         0.000         0.000         0.000         0.000
 NO_CAR         0.000         0.000         0.000         0.000         0.000


           THETA
              HS_DRPT       PHONE         NHB           PA            NO_CAR
              ________      ________      ________      ________      ________
 HS_DRPT        0.008
 PHONE          0.000         0.000
 NHB            0.000         0.000         0.030
 PA             0.000         0.000         0.000         0.002
 NO_CAR         0.000         0.000         0.000         0.000         0.017


     STARTING VALUES FOR LATENT CLASS PATTERN 2 2


           NU
              POVERTY       FEM_HEAD      SINGLE        F_MGMT        F_PROFL
              ________      ________      ________      ________      ________
                0.535         0.571         0.652         0.036         0.364


           NU
              RENTAL        M_MGMT        M_PROFL       CROWD         UNMPLYD
              ________      ________      ________      ________      ________
                0.848         0.036         0.361         0.316         0.232


           NU
              HS_DRPT       PHONE         NHB           PA            NO_CAR
              ________      ________      ________      ________      ________
                0.456         0.992         0.493         0.219         0.779


           THETA
              POVERTY       FEM_HEAD      SINGLE        F_MGMT        F_PROFL
              ________      ________      ________      ________      ________
 POVERTY        0.012
 FEM_HEAD       0.000         0.010
 SINGLE         0.000         0.000         0.010
 F_MGMT         0.000         0.000         0.000         0.000
 F_PROFL        0.000         0.000         0.000         0.000         0.005
 RENTAL         0.000         0.000         0.000         0.000         0.000
 M_MGMT         0.000         0.000         0.000         0.000         0.000
 M_PROFL        0.000         0.000         0.000         0.000         0.000
 CROWD          0.000         0.000         0.000         0.000         0.000
 UNMPLYD        0.000         0.000         0.000         0.000         0.000
 HS_DRPT        0.000         0.000         0.000         0.000         0.000
 PHONE          0.000         0.000         0.000         0.000         0.000
 NHB            0.000         0.000         0.000         0.000         0.000
 PA             0.000         0.000         0.000         0.000         0.000
 NO_CAR         0.000         0.000         0.000         0.000         0.000


           THETA
              RENTAL        M_MGMT        M_PROFL       CROWD         UNMPLYD
              ________      ________      ________      ________      ________
 RENTAL         0.013
 M_MGMT         0.000         0.000
 M_PROFL        0.000         0.000         0.006
 CROWD          0.000         0.000         0.000         0.003
 UNMPLYD        0.000         0.000         0.000         0.000         0.001
 HS_DRPT        0.000         0.000         0.000         0.000         0.000
 PHONE          0.000         0.000         0.000         0.000         0.000
 NHB            0.000         0.000         0.000         0.000         0.000
 PA             0.000         0.000         0.000         0.000         0.000
 NO_CAR         0.000         0.000         0.000         0.000         0.000


           THETA
              HS_DRPT       PHONE         NHB           PA            NO_CAR
              ________      ________      ________      ________      ________
 HS_DRPT        0.008
 PHONE          0.000         0.000
 NHB            0.000         0.000         0.030
 PA             0.000         0.000         0.000         0.002
 NO_CAR         0.000         0.000         0.000         0.000         0.017


     STARTING VALUES FOR LATENT CLASS REGRESSION MODEL PART


           ALPHA(C)
              DISADV#1      DISADV#2      ADV#1         ADV#2
              ________      ________      ________      ________
                0.000         0.000         0.000         0.000


           PSI(C)
              DISADV#1      DISADV#2
              ________      ________
 ADV#1          0.000         0.000
 ADV#2          0.000         0.000


TECHNICAL 4 OUTPUT


PLOT INFORMATION

The following plots are available:

  Histograms (sample values)
  Scatterplots (sample values)
  Sample means
  Estimated means, medians, modes, and percentiles
  Sample and estimated means
  Observed individual values
  Estimated means and observed individual values
  Estimated overall and class-specific distributions

SAVEDATA INFORMATION


  Save file
    nyc_ses_mf_2_2_probs.txt

  Order of variables

    POVERTY
    FEM_HEAD
    SINGLE
    F_MGMT
    F_PROFL
    RENTAL
    M_MGMT
    M_PROFL
    CROWD
    UNMPLYD
    HS_DRPT
    PHONE
    NHB
    PA
    NO_CAR
    CPROB1
    CPROB2
    CPROB3
    CPROB4
    DISADV
    ADV
    MLCJOINT
    MODZCTA

  Save file format           Free

  Save file record length    10000


     Beginning Time:  11:54:49
        Ending Time:  11:55:04
       Elapsed Time:  00:00:15



MUTHEN & MUTHEN
3463 Stoner Ave.
Los Angeles, CA  90066

Tel: (310) 391-9971
Fax: (310) 391-8971
Web: www.StatModel.com
Support: Support@StatModel.com

Copyright (c) 1998-2017 Muthen & Muthen
