TITLE:	
	NYC Comorbidities Model 5;
	
DATA:	
	FILE = "~/school/ny-corona/output/cities500_master_mplus.csv";
		
VARIABLE:	
	NAMES ARE
		MODZCTA arthrts cancer kidney copd chd casthma diabetes bphigh highchol stroke 
		csmoke obesity male white nhb hisp age65;
	MISSING ARE ALL (-9999);
	IDVARIABLE IS MODZCTA;
	USEVARIABLES ARE
		arthrts cancer kidney copd chd casthma diabetes bphigh highchol stroke 
		csmoke obesity nhb age65 hisp;

    CLASSES = com(5);

    ANALYSIS:
    		TYPE = MIXTURE;
        	STARTS = 5000, 10;
        	
    MODEL:
        	%OVERALL%
        	com ON nhb age65 hisp;

    SAVEDATA:
        	FILE IS nyc_comorbids_5_probs.txt;
        	FORMAT IS FREE;
        	SAVE = CPROBABILITIES;

  OUTPUT:
      	tech4;
      	SVALUES;